{
  "v": "5.1.10",
  "fr": 60,
  "ip": 0,
  "op": 391,
  "w": 800,
  "h": 800,
  "nm": "Comp 3",
  "ddd": 0,
  "assets": [
    {
      "layers": [
        {
          "ddd": 0,
          "ind": 1,
          "ty": 4,
          "nm": "Shape Layer 5",
          "sr": 1,
          "ks": {
            "o": {
              "a": 0,
              "k": 100,
              "ix": 11
            },
            "r": {
              "a": 0,
              "k": 0,
              "ix": 10
            },
            "p": {
              "a": 0,
              "k": [
                274,
                148,
                0
              ],
              "ix": 2
            },
            "a": {
              "a": 0,
              "k": [
                42,
                49,
                0
              ],
              "ix": 1
            },
            "s": {
              "a": 0,
              "k": [
                56.522,
                56.522,
                100
              ],
              "ix": 6
            }
          },
          "ao": 0,
          "shapes": [
            {
              "ty": "gr",
              "it": [
                {
                  "d": 1,
                  "ty": "el",
                  "s": {
                    "a": 0,
                    "k": [
                      90,
                      90
                    ],
                    "ix": 2
                  },
                  "p": {
                    "a": 0,
                    "k": [
                      0,
                      0
                    ],
                    "ix": 3
                  },
                  "nm": "Ellipse Path 1",
                  "mn": "ADBE Vector Shape - Ellipse",
                  "hd": false
                },
                {
                  "ty": "st",
                  "c": {
                    "a": 0,
                    "k": [
                      1,
                      0.566827990962,
                      0.101961001228,
                      1
                    ],
                    "ix": 3
                  },
                  "o": {
                    "a": 0,
                    "k": 100,
                    "ix": 4
                  },
                  "w": {
                    "a": 0,
                    "k": 0,
                    "ix": 5
                  },
                  "lc": 1,
                  "lj": 1,
                  "ml": 4,
                  "nm": "Stroke 1",
                  "mn": "ADBE Vector Graphic - Stroke",
                  "hd": false
                },
                {
                  "ty": "fl",
                  "c": {
                    "a": 0,
                    "k": [
                      0.012,
                      0.663,
                      0.957,
                      1
                    ],
                    "ix": 4
                  },
                  "o": {
                    "a": 0,
                    "k": 100,
                    "ix": 5
                  },
                  "r": 1,
                  "nm": "Fill 1",
                  "mn": "ADBE Vector Graphic - Fill",
                  "hd": false
                },
                {
                  "ty": "tr",
                  "p": {
                    "a": 0,
                    "k": [
                      41,
                      48
                    ],
                    "ix": 2
                  },
                  "a": {
                    "a": 0,
                    "k": [
                      0,
                      0
                    ],
                    "ix": 1
                  },
                  "s": {
                    "a": 1,
                    "k": [
                      {
                        "i": {
                          "x": [
                            0.833,
                            0.833
                          ],
                          "y": [
                            0.833,
                            0.833
                          ]
                        },
                        "o": {
                          "x": [
                            0.167,
                            0.167
                          ],
                          "y": [
                            0.167,
                            0.167
                          ]
                        },
                        "n": [
                          "0p833_0p833_0p167_0p167",
                          "0p833_0p833_0p167_0p167"
                        ],
                        "t": 76,
                        "s": [
                          0,
                          0
                        ],
                        "e": [
                          110,
                          110
                        ]
                      },
                      {
                        "i": {
                          "x": [
                            0.833,
                            0.833
                          ],
                          "y": [
                            0.833,
                            0.833
                          ]
                        },
                        "o": {
                          "x": [
                            0.167,
                            0.167
                          ],
                          "y": [
                            0.167,
                            0.167
                          ]
                        },
                        "n": [
                          "0p833_0p833_0p167_0p167",
                          "0p833_0p833_0p167_0p167"
                        ],
                        "t": 100,
                        "s": [
                          110,
                          110
                        ],
                        "e": [
                          100,
                          100
                        ]
                      },
                      {
                        "t": 108
                      }
                    ],
                    "ix": 3
                  },
                  "r": {
                    "a": 0,
                    "k": 0,
                    "ix": 6
                  },
                  "o": {
                    "a": 0,
                    "k": 100,
                    "ix": 7
                  },
                  "sk": {
                    "a": 0,
                    "k": 0,
                    "ix": 4
                  },
                  "sa": {
                    "a": 0,
                    "k": 0,
                    "ix": 5
                  },
                  "nm": "Transform"
                }
              ],
              "nm": "Ellipse 1",
              "np": 3,
              "cix": 2,
              "ix": 1,
              "mn": "ADBE Vector Group",
              "hd": false
            }
          ],
          "ip": 76,
          "op": 1276,
          "st": 76,
          "bm": 0
        },
        {
          "ddd": 0,
          "ind": 2,
          "ty": 4,
          "nm": "Shape Layer 3",
          "sr": 1,
          "ks": {
            "o": {
              "a": 0,
              "k": 100,
              "ix": 11
            },
            "r": {
              "a": 0,
              "k": 0,
              "ix": 10
            },
            "p": {
              "a": 0,
              "k": [
                154,
                30,
                0
              ],
              "ix": 2
            },
            "a": {
              "a": 0,
              "k": [
                42,
                49,
                0
              ],
              "ix": 1
            },
            "s": {
              "a": 0,
              "k": [
                56.522,
                56.522,
                100
              ],
              "ix": 6
            }
          },
          "ao": 0,
          "shapes": [
            {
              "ty": "gr",
              "it": [
                {
                  "d": 1,
                  "ty": "el",
                  "s": {
                    "a": 0,
                    "k": [
                      90,
                      90
                    ],
                    "ix": 2
                  },
                  "p": {
                    "a": 0,
                    "k": [
                      0,
                      0
                    ],
                    "ix": 3
                  },
                  "nm": "Ellipse Path 1",
                  "mn": "ADBE Vector Shape - Ellipse",
                  "hd": false
                },
                {
                  "ty": "st",
                  "c": {
                    "a": 0,
                    "k": [
                      1,
                      0.566827990962,
                      0.101961001228,
                      1
                    ],
                    "ix": 3
                  },
                  "o": {
                    "a": 0,
                    "k": 100,
                    "ix": 4
                  },
                  "w": {
                    "a": 0,
                    "k": 0,
                    "ix": 5
                  },
                  "lc": 1,
                  "lj": 1,
                  "ml": 4,
                  "nm": "Stroke 1",
                  "mn": "ADBE Vector Graphic - Stroke",
                  "hd": false
                },
                {
                  "ty": "fl",
                  "c": {
                    "a": 0,
                    "k": [
                      1,
                      0.341,
                      0.133,
                      1
                    ],
                    "ix": 4
                  },
                  "o": {
                    "a": 0,
                    "k": 100,
                    "ix": 5
                  },
                  "r": 1,
                  "nm": "Fill 1",
                  "mn": "ADBE Vector Graphic - Fill",
                  "hd": false
                },
                {
                  "ty": "tr",
                  "p": {
                    "a": 0,
                    "k": [
                      41,
                      48
                    ],
                    "ix": 2
                  },
                  "a": {
                    "a": 0,
                    "k": [
                      0,
                      0
                    ],
                    "ix": 1
                  },
                  "s": {
                    "a": 1,
                    "k": [
                      {
                        "i": {
                          "x": [
                            0.833,
                            0.833
                          ],
                          "y": [
                            0.833,
                            0.833
                          ]
                        },
                        "o": {
                          "x": [
                            0.167,
                            0.167
                          ],
                          "y": [
                            0.167,
                            0.167
                          ]
                        },
                        "n": [
                          "0p833_0p833_0p167_0p167",
                          "0p833_0p833_0p167_0p167"
                        ],
                        "t": 44,
                        "s": [
                          0,
                          0
                        ],
                        "e": [
                          110,
                          110
                        ]
                      },
                      {
                        "i": {
                          "x": [
                            0.833,
                            0.833
                          ],
                          "y": [
                            0.833,
                            0.833
                          ]
                        },
                        "o": {
                          "x": [
                            0.167,
                            0.167
                          ],
                          "y": [
                            0.167,
                            0.167
                          ]
                        },
                        "n": [
                          "0p833_0p833_0p167_0p167",
                          "0p833_0p833_0p167_0p167"
                        ],
                        "t": 68,
                        "s": [
                          110,
                          110
                        ],
                        "e": [
                          100,
                          100
                        ]
                      },
                      {
                        "t": 76
                      }
                    ],
                    "ix": 3
                  },
                  "r": {
                    "a": 0,
                    "k": 0,
                    "ix": 6
                  },
                  "o": {
                    "a": 0,
                    "k": 100,
                    "ix": 7
                  },
                  "sk": {
                    "a": 0,
                    "k": 0,
                    "ix": 4
                  },
                  "sa": {
                    "a": 0,
                    "k": 0,
                    "ix": 5
                  },
                  "nm": "Transform"
                }
              ],
              "nm": "Ellipse 1",
              "np": 3,
              "cix": 2,
              "ix": 1,
              "mn": "ADBE Vector Group",
              "hd": false
            }
          ],
          "ip": 44,
          "op": 1244,
          "st": 44,
          "bm": 0
        },
        {
          "ddd": 0,
          "ind": 3,
          "ty": 4,
          "nm": "Shape Layer 4",
          "sr": 1,
          "ks": {
            "o": {
              "a": 0,
              "k": 100,
              "ix": 11
            },
            "r": {
              "a": 0,
              "k": 0,
              "ix": 10
            },
            "p": {
              "a": 0,
              "k": [
                28,
                148,
                0
              ],
              "ix": 2
            },
            "a": {
              "a": 0,
              "k": [
                42,
                49,
                0
              ],
              "ix": 1
            },
            "s": {
              "a": 0,
              "k": [
                56.522,
                56.522,
                100
              ],
              "ix": 6
            }
          },
          "ao": 0,
          "shapes": [
            {
              "ty": "gr",
              "it": [
                {
                  "d": 1,
                  "ty": "el",
                  "s": {
                    "a": 0,
                    "k": [
                      90,
                      90
                    ],
                    "ix": 2
                  },
                  "p": {
                    "a": 0,
                    "k": [
                      0,
                      0
                    ],
                    "ix": 3
                  },
                  "nm": "Ellipse Path 1",
                  "mn": "ADBE Vector Shape - Ellipse",
                  "hd": false
                },
                {
                  "ty": "st",
                  "c": {
                    "a": 0,
                    "k": [
                      1,
                      0.566827990962,
                      0.101961001228,
                      1
                    ],
                    "ix": 3
                  },
                  "o": {
                    "a": 0,
                    "k": 100,
                    "ix": 4
                  },
                  "w": {
                    "a": 0,
                    "k": 0,
                    "ix": 5
                  },
                  "lc": 1,
                  "lj": 1,
                  "ml": 4,
                  "nm": "Stroke 1",
                  "mn": "ADBE Vector Graphic - Stroke",
                  "hd": false
                },
                {
                  "ty": "fl",
                  "c": {
                    "a": 0,
                    "k": [
                      0.012,
                      0.663,
                      0.957,
                      1
                    ],
                    "ix": 4
                  },
                  "o": {
                    "a": 0,
                    "k": 100,
                    "ix": 5
                  },
                  "r": 1,
                  "nm": "Fill 1",
                  "mn": "ADBE Vector Graphic - Fill",
                  "hd": false
                },
                {
                  "ty": "tr",
                  "p": {
                    "a": 0,
                    "k": [
                      41,
                      48
                    ],
                    "ix": 2
                  },
                  "a": {
                    "a": 0,
                    "k": [
                      0,
                      0
                    ],
                    "ix": 1
                  },
                  "s": {
                    "a": 1,
                    "k": [
                      {
                        "i": {
                          "x": [
                            0.833,
                            0.833
                          ],
                          "y": [
                            0.833,
                            0.833
                          ]
                        },
                        "o": {
                          "x": [
                            0.167,
                            0.167
                          ],
                          "y": [
                            0.167,
                            0.167
                          ]
                        },
                        "n": [
                          "0p833_0p833_0p167_0p167",
                          "0p833_0p833_0p167_0p167"
                        ],
                        "t": 22,
                        "s": [
                          0,
                          0
                        ],
                        "e": [
                          110,
                          110
                        ]
                      },
                      {
                        "i": {
                          "x": [
                            0.833,
                            0.833
                          ],
                          "y": [
                            0.833,
                            0.833
                          ]
                        },
                        "o": {
                          "x": [
                            0.167,
                            0.167
                          ],
                          "y": [
                            0.167,
                            0.167
                          ]
                        },
                        "n": [
                          "0p833_0p833_0p167_0p167",
                          "0p833_0p833_0p167_0p167"
                        ],
                        "t": 46,
                        "s": [
                          110,
                          110
                        ],
                        "e": [
                          100,
                          100
                        ]
                      },
                      {
                        "t": 54
                      }
                    ],
                    "ix": 3
                  },
                  "r": {
                    "a": 0,
                    "k": 0,
                    "ix": 6
                  },
                  "o": {
                    "a": 0,
                    "k": 100,
                    "ix": 7
                  },
                  "sk": {
                    "a": 0,
                    "k": 0,
                    "ix": 4
                  },
                  "sa": {
                    "a": 0,
                    "k": 0,
                    "ix": 5
                  },
                  "nm": "Transform"
                }
              ],
              "nm": "Ellipse 1",
              "np": 3,
              "cix": 2,
              "ix": 1,
              "mn": "ADBE Vector Group",
              "hd": false
            }
          ],
          "ip": 22,
          "op": 1222,
          "st": 22,
          "bm": 0
        },
        {
          "ddd": 0,
          "ind": 4,
          "ty": 4,
          "nm": "Shape Layer 2",
          "sr": 1,
          "ks": {
            "o": {
              "a": 0,
              "k": 100,
              "ix": 11
            },
            "r": {
              "a": 0,
              "k": 0,
              "ix": 10
            },
            "p": {
              "a": 0,
              "k": [
                154,
                269,
                0
              ],
              "ix": 2
            },
            "a": {
              "a": 0,
              "k": [
                42,
                49,
                0
              ],
              "ix": 1
            },
            "s": {
              "a": 0,
              "k": [
                56.522,
                56.522,
                100
              ],
              "ix": 6
            }
          },
          "ao": 0,
          "shapes": [
            {
              "ty": "gr",
              "it": [
                {
                  "d": 1,
                  "ty": "el",
                  "s": {
                    "a": 0,
                    "k": [
                      90,
                      90
                    ],
                    "ix": 2
                  },
                  "p": {
                    "a": 0,
                    "k": [
                      0,
                      0
                    ],
                    "ix": 3
                  },
                  "nm": "Ellipse Path 1",
                  "mn": "ADBE Vector Shape - Ellipse",
                  "hd": false
                },
                {
                  "ty": "st",
                  "c": {
                    "a": 0,
                    "k": [
                      1,
                      0.566827990962,
                      0.101961001228,
                      1
                    ],
                    "ix": 3
                  },
                  "o": {
                    "a": 0,
                    "k": 100,
                    "ix": 4
                  },
                  "w": {
                    "a": 0,
                    "k": 0,
                    "ix": 5
                  },
                  "lc": 1,
                  "lj": 1,
                  "ml": 4,
                  "nm": "Stroke 1",
                  "mn": "ADBE Vector Graphic - Stroke",
                  "hd": false
                },
                {
                  "ty": "fl",
                  "c": {
                    "a": 0,
                    "k": [
                      1,
                      0.341,
                      0.133,
                      1
                    ],
                    "ix": 4
                  },
                  "o": {
                    "a": 0,
                    "k": 100,
                    "ix": 5
                  },
                  "r": 1,
                  "nm": "Fill 1",
                  "mn": "ADBE Vector Graphic - Fill",
                  "hd": false
                },
                {
                  "ty": "tr",
                  "p": {
                    "a": 0,
                    "k": [
                      41,
                      48
                    ],
                    "ix": 2
                  },
                  "a": {
                    "a": 0,
                    "k": [
                      0,
                      0
                    ],
                    "ix": 1
                  },
                  "s": {
                    "a": 1,
                    "k": [
                      {
                        "i": {
                          "x": [
                            0.833,
                            0.833
                          ],
                          "y": [
                            0.833,
                            0.833
                          ]
                        },
                        "o": {
                          "x": [
                            0.167,
                            0.167
                          ],
                          "y": [
                            0.167,
                            0.167
                          ]
                        },
                        "n": [
                          "0p833_0p833_0p167_0p167",
                          "0p833_0p833_0p167_0p167"
                        ],
                        "t": 0,
                        "s": [
                          0,
                          0
                        ],
                        "e": [
                          110,
                          110
                        ]
                      },
                      {
                        "i": {
                          "x": [
                            0.833,
                            0.833
                          ],
                          "y": [
                            0.833,
                            0.833
                          ]
                        },
                        "o": {
                          "x": [
                            0.167,
                            0.167
                          ],
                          "y": [
                            0.167,
                            0.167
                          ]
                        },
                        "n": [
                          "0p833_0p833_0p167_0p167",
                          "0p833_0p833_0p167_0p167"
                        ],
                        "t": 24,
                        "s": [
                          110,
                          110
                        ],
                        "e": [
                          100,
                          100
                        ]
                      },
                      {
                        "t": 32
                      }
                    ],
                    "ix": 3
                  },
                  "r": {
                    "a": 0,
                    "k": 0,
                    "ix": 6
                  },
                  "o": {
                    "a": 0,
                    "k": 100,
                    "ix": 7
                  },
                  "sk": {
                    "a": 0,
                    "k": 0,
                    "ix": 4
                  },
                  "sa": {
                    "a": 0,
                    "k": 0,
                    "ix": 5
                  },
                  "nm": "Transform"
                }
              ],
              "nm": "Ellipse 1",
              "np": 3,
              "cix": 2,
              "ix": 1,
              "mn": "ADBE Vector Group",
              "hd": false
            }
          ],
          "ip": 0,
          "op": 1200,
          "st": 0,
          "bm": 0
        }
      ],
      "id": 92,
      "nm": "1",
      "xt": 1
    },
    {
      "id": "comp_0",
      "layers": [
        {
          "ddd": 0,
          "ind": 1,
          "ty": 4,
          "nm": "Shape Layer 5",
          "sr": 1,
          "ks": {
            "o": {
              "a": 0,
              "k": 100,
              "ix": 11
            },
            "r": {
              "a": 0,
              "k": 0,
              "ix": 10
            },
            "p": {
              "a": 0,
              "k": [
                274,
                148,
                0
              ],
              "ix": 2
            },
            "a": {
              "a": 0,
              "k": [
                42,
                49,
                0
              ],
              "ix": 1
            },
            "s": {
              "a": 0,
              "k": [
                56.522,
                56.522,
                100
              ],
              "ix": 6
            }
          },
          "ao": 0,
          "shapes": [
            {
              "ty": "gr",
              "it": [
                {
                  "d": 1,
                  "ty": "el",
                  "s": {
                    "a": 0,
                    "k": [
                      90,
                      90
                    ],
                    "ix": 2
                  },
                  "p": {
                    "a": 0,
                    "k": [
                      0,
                      0
                    ],
                    "ix": 3
                  },
                  "nm": "Ellipse Path 1",
                  "mn": "ADBE Vector Shape - Ellipse",
                  "hd": false
                },
                {
                  "ty": "st",
                  "c": {
                    "a": 0,
                    "k": [
                      1,
                      0.566827990962,
                      0.101961001228,
                      1
                    ],
                    "ix": 3
                  },
                  "o": {
                    "a": 0,
                    "k": 100,
                    "ix": 4
                  },
                  "w": {
                    "a": 0,
                    "k": 0,
                    "ix": 5
                  },
                  "lc": 1,
                  "lj": 1,
                  "ml": 4,
                  "nm": "Stroke 1",
                  "mn": "ADBE Vector Graphic - Stroke",
                  "hd": false
                },
                {
                  "ty": "fl",
                  "c": {
                    "a": 0,
                    "k": [
                      0.012,
                      0.663,
                      0.957,
                      1
                    ],
                    "ix": 4
                  },
                  "o": {
                    "a": 0,
                    "k": 100,
                    "ix": 5
                  },
                  "r": 1,
                  "nm": "Fill 1",
                  "mn": "ADBE Vector Graphic - Fill",
                  "hd": false
                },
                {
                  "ty": "tr",
                  "p": {
                    "a": 0,
                    "k": [
                      41,
                      48
                    ],
                    "ix": 2
                  },
                  "a": {
                    "a": 0,
                    "k": [
                      0,
                      0
                    ],
                    "ix": 1
                  },
                  "s": {
                    "a": 1,
                    "k": [
                      {
                        "i": {
                          "x": [
                            0.833,
                            0.833
                          ],
                          "y": [
                            0.833,
                            0.833
                          ]
                        },
                        "o": {
                          "x": [
                            0.167,
                            0.167
                          ],
                          "y": [
                            0.167,
                            0.167
                          ]
                        },
                        "n": [
                          "0p833_0p833_0p167_0p167",
                          "0p833_0p833_0p167_0p167"
                        ],
                        "t": 76,
                        "s": [
                          0,
                          0
                        ],
                        "e": [
                          110,
                          110
                        ]
                      },
                      {
                        "i": {
                          "x": [
                            0.833,
                            0.833
                          ],
                          "y": [
                            0.833,
                            0.833
                          ]
                        },
                        "o": {
                          "x": [
                            0.167,
                            0.167
                          ],
                          "y": [
                            0.167,
                            0.167
                          ]
                        },
                        "n": [
                          "0p833_0p833_0p167_0p167",
                          "0p833_0p833_0p167_0p167"
                        ],
                        "t": 100,
                        "s": [
                          110,
                          110
                        ],
                        "e": [
                          100,
                          100
                        ]
                      },
                      {
                        "t": 108
                      }
                    ],
                    "ix": 3
                  },
                  "r": {
                    "a": 0,
                    "k": 0,
                    "ix": 6
                  },
                  "o": {
                    "a": 0,
                    "k": 100,
                    "ix": 7
                  },
                  "sk": {
                    "a": 0,
                    "k": 0,
                    "ix": 4
                  },
                  "sa": {
                    "a": 0,
                    "k": 0,
                    "ix": 5
                  },
                  "nm": "Transform"
                }
              ],
              "nm": "Ellipse 1",
              "np": 3,
              "cix": 2,
              "ix": 1,
              "mn": "ADBE Vector Group",
              "hd": false
            }
          ],
          "ip": 76,
          "op": 1276,
          "st": 76,
          "bm": 0
        },
        {
          "ddd": 0,
          "ind": 2,
          "ty": 4,
          "nm": "Shape Layer 3",
          "sr": 1,
          "ks": {
            "o": {
              "a": 0,
              "k": 100,
              "ix": 11
            },
            "r": {
              "a": 0,
              "k": 0,
              "ix": 10
            },
            "p": {
              "a": 0,
              "k": [
                154,
                30,
                0
              ],
              "ix": 2
            },
            "a": {
              "a": 0,
              "k": [
                42,
                49,
                0
              ],
              "ix": 1
            },
            "s": {
              "a": 0,
              "k": [
                56.522,
                56.522,
                100
              ],
              "ix": 6
            }
          },
          "ao": 0,
          "shapes": [
            {
              "ty": "gr",
              "it": [
                {
                  "d": 1,
                  "ty": "el",
                  "s": {
                    "a": 0,
                    "k": [
                      90,
                      90
                    ],
                    "ix": 2
                  },
                  "p": {
                    "a": 0,
                    "k": [
                      0,
                      0
                    ],
                    "ix": 3
                  },
                  "nm": "Ellipse Path 1",
                  "mn": "ADBE Vector Shape - Ellipse",
                  "hd": false
                },
                {
                  "ty": "st",
                  "c": {
                    "a": 0,
                    "k": [
                      1,
                      0.566827990962,
                      0.101961001228,
                      1
                    ],
                    "ix": 3
                  },
                  "o": {
                    "a": 0,
                    "k": 100,
                    "ix": 4
                  },
                  "w": {
                    "a": 0,
                    "k": 0,
                    "ix": 5
                  },
                  "lc": 1,
                  "lj": 1,
                  "ml": 4,
                  "nm": "Stroke 1",
                  "mn": "ADBE Vector Graphic - Stroke",
                  "hd": false
                },
                {
                  "ty": "fl",
                  "c": {
                    "a": 0,
                    "k": [
                      1,
                      0.341,
                      0.133,
                      1
                    ],
                    "ix": 4
                  },
                  "o": {
                    "a": 0,
                    "k": 100,
                    "ix": 5
                  },
                  "r": 1,
                  "nm": "Fill 1",
                  "mn": "ADBE Vector Graphic - Fill",
                  "hd": false
                },
                {
                  "ty": "tr",
                  "p": {
                    "a": 0,
                    "k": [
                      41,
                      48
                    ],
                    "ix": 2
                  },
                  "a": {
                    "a": 0,
                    "k": [
                      0,
                      0
                    ],
                    "ix": 1
                  },
                  "s": {
                    "a": 1,
                    "k": [
                      {
                        "i": {
                          "x": [
                            0.833,
                            0.833
                          ],
                          "y": [
                            0.833,
                            0.833
                          ]
                        },
                        "o": {
                          "x": [
                            0.167,
                            0.167
                          ],
                          "y": [
                            0.167,
                            0.167
                          ]
                        },
                        "n": [
                          "0p833_0p833_0p167_0p167",
                          "0p833_0p833_0p167_0p167"
                        ],
                        "t": 44,
                        "s": [
                          0,
                          0
                        ],
                        "e": [
                          110,
                          110
                        ]
                      },
                      {
                        "i": {
                          "x": [
                            0.833,
                            0.833
                          ],
                          "y": [
                            0.833,
                            0.833
                          ]
                        },
                        "o": {
                          "x": [
                            0.167,
                            0.167
                          ],
                          "y": [
                            0.167,
                            0.167
                          ]
                        },
                        "n": [
                          "0p833_0p833_0p167_0p167",
                          "0p833_0p833_0p167_0p167"
                        ],
                        "t": 68,
                        "s": [
                          110,
                          110
                        ],
                        "e": [
                          100,
                          100
                        ]
                      },
                      {
                        "t": 76
                      }
                    ],
                    "ix": 3
                  },
                  "r": {
                    "a": 0,
                    "k": 0,
                    "ix": 6
                  },
                  "o": {
                    "a": 0,
                    "k": 100,
                    "ix": 7
                  },
                  "sk": {
                    "a": 0,
                    "k": 0,
                    "ix": 4
                  },
                  "sa": {
                    "a": 0,
                    "k": 0,
                    "ix": 5
                  },
                  "nm": "Transform"
                }
              ],
              "nm": "Ellipse 1",
              "np": 3,
              "cix": 2,
              "ix": 1,
              "mn": "ADBE Vector Group",
              "hd": false
            }
          ],
          "ip": 44,
          "op": 1244,
          "st": 44,
          "bm": 0
        },
        {
          "ddd": 0,
          "ind": 3,
          "ty": 4,
          "nm": "Shape Layer 4",
          "sr": 1,
          "ks": {
            "o": {
              "a": 0,
              "k": 100,
              "ix": 11
            },
            "r": {
              "a": 0,
              "k": 0,
              "ix": 10
            },
            "p": {
              "a": 0,
              "k": [
                28,
                148,
                0
              ],
              "ix": 2
            },
            "a": {
              "a": 0,
              "k": [
                42,
                49,
                0
              ],
              "ix": 1
            },
            "s": {
              "a": 0,
              "k": [
                56.522,
                56.522,
                100
              ],
              "ix": 6
            }
          },
          "ao": 0,
          "shapes": [
            {
              "ty": "gr",
              "it": [
                {
                  "d": 1,
                  "ty": "el",
                  "s": {
                    "a": 0,
                    "k": [
                      90,
                      90
                    ],
                    "ix": 2
                  },
                  "p": {
                    "a": 0,
                    "k": [
                      0,
                      0
                    ],
                    "ix": 3
                  },
                  "nm": "Ellipse Path 1",
                  "mn": "ADBE Vector Shape - Ellipse",
                  "hd": false
                },
                {
                  "ty": "st",
                  "c": {
                    "a": 0,
                    "k": [
                      1,
                      0.566827990962,
                      0.101961001228,
                      1
                    ],
                    "ix": 3
                  },
                  "o": {
                    "a": 0,
                    "k": 100,
                    "ix": 4
                  },
                  "w": {
                    "a": 0,
                    "k": 0,
                    "ix": 5
                  },
                  "lc": 1,
                  "lj": 1,
                  "ml": 4,
                  "nm": "Stroke 1",
                  "mn": "ADBE Vector Graphic - Stroke",
                  "hd": false
                },
                {
                  "ty": "fl",
                  "c": {
                    "a": 0,
                    "k": [
                      0.012,
                      0.663,
                      0.957,
                      1
                    ],
                    "ix": 4
                  },
                  "o": {
                    "a": 0,
                    "k": 100,
                    "ix": 5
                  },
                  "r": 1,
                  "nm": "Fill 1",
                  "mn": "ADBE Vector Graphic - Fill",
                  "hd": false
                },
                {
                  "ty": "tr",
                  "p": {
                    "a": 0,
                    "k": [
                      41,
                      48
                    ],
                    "ix": 2
                  },
                  "a": {
                    "a": 0,
                    "k": [
                      0,
                      0
                    ],
                    "ix": 1
                  },
                  "s": {
                    "a": 1,
                    "k": [
                      {
                        "i": {
                          "x": [
                            0.833,
                            0.833
                          ],
                          "y": [
                            0.833,
                            0.833
                          ]
                        },
                        "o": {
                          "x": [
                            0.167,
                            0.167
                          ],
                          "y": [
                            0.167,
                            0.167
                          ]
                        },
                        "n": [
                          "0p833_0p833_0p167_0p167",
                          "0p833_0p833_0p167_0p167"
                        ],
                        "t": 22,
                        "s": [
                          0,
                          0
                        ],
                        "e": [
                          110,
                          110
                        ]
                      },
                      {
                        "i": {
                          "x": [
                            0.833,
                            0.833
                          ],
                          "y": [
                            0.833,
                            0.833
                          ]
                        },
                        "o": {
                          "x": [
                            0.167,
                            0.167
                          ],
                          "y": [
                            0.167,
                            0.167
                          ]
                        },
                        "n": [
                          "0p833_0p833_0p167_0p167",
                          "0p833_0p833_0p167_0p167"
                        ],
                        "t": 46,
                        "s": [
                          110,
                          110
                        ],
                        "e": [
                          100,
                          100
                        ]
                      },
                      {
                        "t": 54
                      }
                    ],
                    "ix": 3
                  },
                  "r": {
                    "a": 0,
                    "k": 0,
                    "ix": 6
                  },
                  "o": {
                    "a": 0,
                    "k": 100,
                    "ix": 7
                  },
                  "sk": {
                    "a": 0,
                    "k": 0,
                    "ix": 4
                  },
                  "sa": {
                    "a": 0,
                    "k": 0,
                    "ix": 5
                  },
                  "nm": "Transform"
                }
              ],
              "nm": "Ellipse 1",
              "np": 3,
              "cix": 2,
              "ix": 1,
              "mn": "ADBE Vector Group",
              "hd": false
            }
          ],
          "ip": 22,
          "op": 1222,
          "st": 22,
          "bm": 0
        },
        {
          "ddd": 0,
          "ind": 4,
          "ty": 4,
          "nm": "Shape Layer 2",
          "sr": 1,
          "ks": {
            "o": {
              "a": 0,
              "k": 100,
              "ix": 11
            },
            "r": {
              "a": 0,
              "k": 0,
              "ix": 10
            },
            "p": {
              "a": 0,
              "k": [
                154,
                269,
                0
              ],
              "ix": 2
            },
            "a": {
              "a": 0,
              "k": [
                42,
                49,
                0
              ],
              "ix": 1
            },
            "s": {
              "a": 0,
              "k": [
                56.522,
                56.522,
                100
              ],
              "ix": 6
            }
          },
          "ao": 0,
          "shapes": [
            {
              "ty": "gr",
              "it": [
                {
                  "d": 1,
                  "ty": "el",
                  "s": {
                    "a": 0,
                    "k": [
                      90,
                      90
                    ],
                    "ix": 2
                  },
                  "p": {
                    "a": 0,
                    "k": [
                      0,
                      0
                    ],
                    "ix": 3
                  },
                  "nm": "Ellipse Path 1",
                  "mn": "ADBE Vector Shape - Ellipse",
                  "hd": false
                },
                {
                  "ty": "st",
                  "c": {
                    "a": 0,
                    "k": [
                      1,
                      0.566827990962,
                      0.101961001228,
                      1
                    ],
                    "ix": 3
                  },
                  "o": {
                    "a": 0,
                    "k": 100,
                    "ix": 4
                  },
                  "w": {
                    "a": 0,
                    "k": 0,
                    "ix": 5
                  },
                  "lc": 1,
                  "lj": 1,
                  "ml": 4,
                  "nm": "Stroke 1",
                  "mn": "ADBE Vector Graphic - Stroke",
                  "hd": false
                },
                {
                  "ty": "fl",
                  "c": {
                    "a": 0,
                    "k": [
                      1,
                      0.341,
                      0.133,
                      1
                    ],
                    "ix": 4
                  },
                  "o": {
                    "a": 0,
                    "k": 100,
                    "ix": 5
                  },
                  "r": 1,
                  "nm": "Fill 1",
                  "mn": "ADBE Vector Graphic - Fill",
                  "hd": false
                },
                {
                  "ty": "tr",
                  "p": {
                    "a": 0,
                    "k": [
                      41,
                      48
                    ],
                    "ix": 2
                  },
                  "a": {
                    "a": 0,
                    "k": [
                      0,
                      0
                    ],
                    "ix": 1
                  },
                  "s": {
                    "a": 1,
                    "k": [
                      {
                        "i": {
                          "x": [
                            0.833,
                            0.833
                          ],
                          "y": [
                            0.833,
                            0.833
                          ]
                        },
                        "o": {
                          "x": [
                            0.167,
                            0.167
                          ],
                          "y": [
                            0.167,
                            0.167
                          ]
                        },
                        "n": [
                          "0p833_0p833_0p167_0p167",
                          "0p833_0p833_0p167_0p167"
                        ],
                        "t": 0,
                        "s": [
                          0,
                          0
                        ],
                        "e": [
                          110,
                          110
                        ]
                      },
                      {
                        "i": {
                          "x": [
                            0.833,
                            0.833
                          ],
                          "y": [
                            0.833,
                            0.833
                          ]
                        },
                        "o": {
                          "x": [
                            0.167,
                            0.167
                          ],
                          "y": [
                            0.167,
                            0.167
                          ]
                        },
                        "n": [
                          "0p833_0p833_0p167_0p167",
                          "0p833_0p833_0p167_0p167"
                        ],
                        "t": 24,
                        "s": [
                          110,
                          110
                        ],
                        "e": [
                          100,
                          100
                        ]
                      },
                      {
                        "t": 32
                      }
                    ],
                    "ix": 3
                  },
                  "r": {
                    "a": 0,
                    "k": 0,
                    "ix": 6
                  },
                  "o": {
                    "a": 0,
                    "k": 100,
                    "ix": 7
                  },
                  "sk": {
                    "a": 0,
                    "k": 0,
                    "ix": 4
                  },
                  "sa": {
                    "a": 0,
                    "k": 0,
                    "ix": 5
                  },
                  "nm": "Transform"
                }
              ],
              "nm": "Ellipse 1",
              "np": 3,
              "cix": 2,
              "ix": 1,
              "mn": "ADBE Vector Group",
              "hd": false
            }
          ],
          "ip": 0,
          "op": 1200,
          "st": 0,
          "bm": 0
        }
      ]
    }
  ],
  "layers": [
    {
      "ddd": 0,
      "ind": 1,
      "ty": 0,
      "nm": "1",
      "refId": "comp_0",
      "sr": 1,
      "ks": {
        "o": {
          "a": 0,
          "k": 100,
          "ix": 11
        },
        "r": {
          "a": 1,
          "k": [
            {
              "i": {
                "x": [
                  0.833
                ],
                "y": [
                  0.833
                ]
              },
              "o": {
                "x": [
                  0.167
                ],
                "y": [
                  0.167
                ]
              },
              "n": [
                "0p833_0p833_0p167_0p167"
              ],
              "t": 64,
              "s": [
                720
              ],
              "e": [
                -540
              ]
            },
            {
              "t": 360
            }
          ],
          "ix": 10
        },
        "p": {
          "a": 0,
          "k": [
            400,
            400,
            0
          ],
          "ix": 2
        },
        "a": {
          "a": 0,
          "k": [
            150,
            150,
            0
          ],
          "ix": 1
        },
        "s": {
          "a": 1,
          "k": [
            {
              "i": {
                "x": [
                  0.833,
                  0.833,
                  0.833
                ],
                "y": [
                  0.833,
                  0.833,
                  0.833
                ]
              },
              "o": {
                "x": [
                  0.167,
                  0.167,
                  0.167
                ],
                "y": [
                  0.167,
                  0.167,
                  0.167
                ]
              },
              "n": [
                "0p833_0p833_0p167_0p167",
                "0p833_0p833_0p167_0p167",
                "0p833_0p833_0p167_0p167"
              ],
              "t": 64,
              "s": [
                0,
                0,
                100
              ],
              "e": [
                60,
                60,
                100
              ]
            },
            {
              "i": {
                "x": [
                  0.833,
                  0.833,
                  0.833
                ],
                "y": [
                  0.833,
                  0.833,
                  0.833
                ]
              },
              "o": {
                "x": [
                  0.167,
                  0.167,
                  0.167
                ],
                "y": [
                  0.167,
                  0.167,
                  0.167
                ]
              },
              "n": [
                "0p833_0p833_0p167_0p167",
                "0p833_0p833_0p167_0p167",
                "0p833_0p833_0p167_0p167"
              ],
              "t": 107,
              "s": [
                60,
                60,
                100
              ],
              "e": [
                100,
                100,
                100
              ]
            },
            {
              "i": {
                "x": [
                  0.833,
                  0.833,
                  0.833
                ],
                "y": [
                  0.833,
                  0.833,
                  0.833
                ]
              },
              "o": {
                "x": [
                  0.167,
                  0.167,
                  0.167
                ],
                "y": [
                  0.167,
                  0.167,
                  0.167
                ]
              },
              "n": [
                "0p833_0p833_0p167_0p167",
                "0p833_0p833_0p167_0p167",
                "0p833_0p833_0p167_0p167"
              ],
              "t": 328,
              "s": [
                100,
                100,
                100
              ],
              "e": [
                0,
                0,
                100
              ]
            },
            {
              "t": 360
            }
          ],
          "ix": 6
        }
      },
      "ao": 0,
      "w": 300,
      "h": 300,
      "ip": 59,
      "op": 1259,
      "st": 59,
      "bm": 0
    },
    {
      "ddd": 0,
      "ind": 2,
      "ty": 0,
      "nm": "1",
      "refId": "comp_0",
      "sr": 1,
      "ks": {
        "o": {
          "a": 0,
          "k": 100,
          "ix": 11
        },
        "r": {
          "a": 1,
          "k": [
            {
              "i": {
                "x": [
                  0.833
                ],
                "y": [
                  0.833
                ]
              },
              "o": {
                "x": [
                  0.167
                ],
                "y": [
                  0.167
                ]
              },
              "n": [
                "0p833_0p833_0p167_0p167"
              ],
              "t": 5,
              "s": [
                720
              ],
              "e": [
                1260
              ]
            },
            {
              "t": 360
            }
          ],
          "ix": 10
        },
        "p": {
          "a": 0,
          "k": [
            400,
            400,
            0
          ],
          "ix": 2
        },
        "a": {
          "a": 0,
          "k": [
            150,
            150,
            0
          ],
          "ix": 1
        },
        "s": {
          "a": 1,
          "k": [
            {
              "i": {
                "x": [
                  0.833,
                  0.833,
                  0.833
                ],
                "y": [
                  0.833,
                  0.833,
                  0.833
                ]
              },
              "o": {
                "x": [
                  0.167,
                  0.167,
                  0.167
                ],
                "y": [
                  0.167,
                  0.167,
                  0.167
                ]
              },
              "n": [
                "0p833_0p833_0p167_0p167",
                "0p833_0p833_0p167_0p167",
                "0p833_0p833_0p167_0p167"
              ],
              "t": 298,
              "s": [
                100,
                100,
                100
              ],
              "e": [
                100,
                100,
                100
              ]
            },
            {
              "i": {
                "x": [
                  0.833,
                  0.833,
                  0.833
                ],
                "y": [
                  0.833,
                  0.833,
                  0.833
                ]
              },
              "o": {
                "x": [
                  0.167,
                  0.167,
                  0.167
                ],
                "y": [
                  0.167,
                  0.167,
                  0.167
                ]
              },
              "n": [
                "0p833_0p833_0p167_0p167",
                "0p833_0p833_0p167_0p167",
                "0p833_0p833_0p167_0p167"
              ],
              "t": 328,
              "s": [
                100,
                100,
                100
              ],
              "e": [
                0,
                0,
                100
              ]
            },
            {
              "t": 360
            }
          ],
          "ix": 6
        }
      },
      "ao": 0,
      "w": 300,
      "h": 300,
      "ip": 0,
      "op": 1200,
      "st": 0,
      "bm": 0
    }
  ],
  "markers": []
}